…
    ## -- Conflicts ------------------------------------------ tidyverse_conflicts() --
    ## x dplyr::filter() masks stats::filter()
    ## x dplyr::lag()    masks stats::lag()

## Reformat the data

``` r
iris <- as_tibble(iris)
iris
```

    ## # A tibble: 150 x 5
    ##    Sepal.Length Sepal.Width Petal.Length Petal.Width Species
    ##           <dbl>       <dbl>        <dbl>       <dbl> <fct>  
    ##  1          5.1         3.5          1.4         0.2 setosa 
    ##  2          4.9         3            1.4         0.2 setosa 
    ##  3          4.7         3.2          1.3         0.2 setosa 
    ##  4          4.6         3.1          1.5         0.2 setosa 
    ##  5          5           3.6          1.4         0.2 setosa 
    ##  6          5.4         3.9          1.7         0.4 setosa 
    ##  7          4.6         3.4          1.4         0.3 setosa 
    ##  8          5           3.4          1.5         0.2 setosa 
    ##  9          4.4         2.9          1.4         0.2 setosa 
    ## 10          4.9         3.1          1.5         0.1 setosa 
    ## # ... with 140 more rows
…
<!-- end list -->

``` r
new_titles <- rename(iris,
       sepal_length = Sepal.Length,
       sepal_width = Sepal.Width,
       petal_length = Petal.Length,
       petal_width = Petal.Width,
       species = Species
       )

new_titles
```

    ## # A tibble: 150 x 5
    ##    sepal_length sepal_width petal_length petal_width species
    ##           <dbl>       <dbl>        <dbl>       <dbl> <fct>  
    ##  1          5.1         3.5          1.4         0.2 setosa 
    ##  2          4.9         3            1.4         0.2 setosa 
    ##  3          4.7         3.2          1.3         0.2 setosa 
    ##  4          4.6         3.1          1.5         0.2 setosa 
    ##  5          5           3.6          1.4         0.2 setosa 
    ##  6          5.4         3.9          1.7         0.4 setosa 
    ##  7          4.6         3.4          1.4         0.3 setosa 
    ##  8          5           3.4          1.5         0.2 setosa 
    ##  9          4.4         2.9          1.4         0.2 setosa 
    ## 10          4.9         3.1          1.5         0.1 setosa 
    ## # ... with 140 more rows
…
<!-- end list -->

``` r
mm <- mutate(new_titles, sepal_length = sepal_length * 10,
       sepal_width = sepal_width * 10,
       petal_length = petal_length * 10,
       petal_width = petal_width * 10,
       )

mm
```

    ## # A tibble: 150 x 5
    ##    sepal_length sepal_width petal_length petal_width species
    ##           <dbl>       <dbl>        <dbl>       <dbl> <fct>  
    ##  1           51          35           14           2 setosa 
    ##  2           49          30           14           2 setosa 
    ##  3           47          32           13           2 setosa 
    ##  4           46          31           15           2 setosa 
    ##  5           50          36           14           2 setosa 
    ##  6           54          39           17           4 setosa 
    ##  7           46          34           14           3 setosa 
    ##  8           50          34           15           2 setosa 
    ##  9           44          29           14           2 setosa 
    ## 10           49          31           15           1 setosa 
    ## # ... with 140 more rows
…
<!-- end list -->

``` r
area <- mutate(mm, sepal_area = sepal_length * sepal_width,
       petal_area = petal_length * petal_width
       )

species_area <- select(area, sepal_area, petal_area, species)

species_area
```

    ## # A tibble: 150 x 3
    ##    sepal_area petal_area species
    ##         <dbl>      <dbl> <fct>  
    ##  1       1785         28 setosa 
    ##  2       1470         28 setosa 
    ##  3       1504         26 setosa 
    ##  4       1426         30 setosa 
    ##  5       1800         28 setosa 
    ##  6       2106         68 setosa 
    ##  7       1564         42 setosa 
    ##  8       1700         30 setosa 
    ##  9       1276         28 setosa 
    ## 10       1519         15 setosa 
    ## # ... with 140 more rows
…
5.  Calculate the following statistics for each species from the petal
    width variable and print the resulting table:

sample size mean standard deviation variance standard error of the mean
approximate 95% confidence interval

``` r
species <- group_by(mm, species)

species
```

    ## # A tibble: 150 x 5
    ## # Groups:   species [3]
    ##    sepal_length sepal_width petal_length petal_width species
    ##           <dbl>       <dbl>        <dbl>       <dbl> <fct>  
    ##  1           51          35           14           2 setosa 
    ##  2           49          30           14           2 setosa 
    ##  3           47          32           13           2 setosa 
    ##  4           46          31           15           2 setosa 
    ##  5           50          36           14           2 setosa 
    ##  6           54          39           17           4 setosa 
    ##  7           46          34           14           3 setosa 
    ##  8           50          34           15           2 setosa 
    ##  9           44          29           14           2 setosa 
    ## 10           49          31           15           1 setosa 
    ## # ... with 140 more rows
…
